Jerwell Escusa - Data Preparation and Visualization
…
From the time series plots, heteroskedasticity is evident. Also, we can see the effects of the COVID-19 pandemic. Although adjustments can be made regarding sudden level shifts, forecasting using ETS and ARIMA models will be problematic for low counts. Other methods can deal with this specific case, but I have yet to study these methods. Further investigation below confirms this. If we go to the lowest aggregation level, there are still some zero counts even before 2020. Given this, I will focus on forecasting time series data before 2020, aggregated by region and purpose—and the total visits.

# Observations with zero visits
tourism_agg |> 
  filter(Visits == 0)

Loading required namespace: crayon

# A tsibble: 76 x 4 [1M]
# Key:       Region, Purpose [7]
       Date Region    Purpose      Visits
      <mth> <chr*>    <chr*>        <int>
 1 2020 Apr Stateless <aggregated>      0
 2 2020 May Stateless <aggregated>      0
 3 2020 Jul Stateless <aggregated>      0
 4 2021 Nov Stateless <aggregated>      0
 5 2022 Feb Stateless <aggregated>      0
 6 2009 May Stateless Business          0
 7 2010 Jun Stateless Others            0
 8 2011 Mar Stateless Business          0
 9 2012 Feb Stateless Business          0
10 2012 Sep Stateless Business          0
# ℹ 66 more rows

# Observations pre-2020 arranged by visits
tourism_agg |> 
  filter(
    year(Date) < 2020
  ) |> arrange(Visits)

Warning: Current temporal ordering may yield unexpected results.
ℹ Suggest to sort by `Region`, `Purpose`, `Date` first.

# A tsibble: 9,216 x 4 [1M]
# Key:       Region, Purpose [32]
       Date Region    Purpose  Visits
      <mth> <chr*>    <chr*>    <int>
 1 2009 May Stateless Business      0
 2 2010 Jun Stateless Others        0
 3 2011 Mar Stateless Business      0
 4 2012 Feb Stateless Business      0
 5 2012 Sep Stateless Business      0
 6 2014 Feb Stateless Business      0
 7 2009 Jul Stateless Others        1
 8 2010 Nov Stateless Business      1
 9 2011 May Stateless Business      1
10 2011 Aug Stateless Business      1
# ℹ 9,206 more rows

While pre-2020 observations in the lowest aggregation level contain zero counts, once they are aggregated either by region or by purpose, zero counts are no longer present.

# Observations pre-2020 (aggregated by either region or purpose) arranged by visits
tourism_agg |> 
  filter(
    year(Date) < 2020,
    is_aggregated(Purpose) | is_aggregated(Region),
  ) |> 
  arrange(Visits)

Warning: Current temporal ordering may yield unexpected results.
ℹ Suggest to sort by `Region`, `Purpose`, `Date` first.

# A tsibble: 3,168 x 4 [1M]
# Key:       Region, Purpose [11]
       Date Region    Purpose      Visits
      <mth> <chr*>    <chr*>        <int>
 1 2012 Feb Stateless <aggregated>     14
 2 2011 Mar Stateless <aggregated>     20
 3 2011 Apr Stateless <aggregated>     28
 4 2011 Sep Stateless <aggregated>     28
 5 2011 Aug Stateless <aggregated>     30
 6 2013 Mar Stateless <aggregated>     30
 7 2013 Aug Stateless <aggregated>     30
 8 2013 Jan Stateless <aggregated>     31
 9 2011 May Stateless <aggregated>     32
10 2012 Aug Stateless <aggregated>     32
# ℹ 3,158 more rows
…
